<?xml version="1.0" encoding="UTF-8" standalone="no"?>
<!DOCTYPE svg PUBLIC "-//W3C//DTD SVG 1.1//EN"
 "http://www.w3.org/Graphics/SVG/1.1/DTD/svg11.dtd">
<!-- Generated by graphviz version 2.38.0 (20140413.2041)
 -->
<!-- Title: erd Pages: 1 -->
<svg width="340pt" height="139pt"
 viewBox="0.00 0.00 340.00 139.00" xmlns="http://www.w3.org/2000/svg" xmlns:xlink="http://www.w3.org/1999/xlink">
<g id="graph0" class="graph" transform="scale(1 1) rotate(0) translate(4 135)">
<title>erd</title>
<polygon fill="white" stroke="none" points="-4,4 -4,-135 336,-135 336,4 -4,4"/>
<!-- Root -->
<g id="node1" class="node"><title>Root</title>
<polygon fill="none" stroke="black" points="8,-101.5 8,-126.5 68,-126.5 68,-101.5 8,-101.5"/>
<text text-anchor="start" x="22.4416" y="-110.1" font-family="Times,serif" font-weight="bold" font-size="16.00">Root</text>
<polygon fill="none" stroke="black" points="8,-76.5 8,-101.5 68,-101.5 68,-76.5 8,-76.5"/>
<text text-anchor="start" x="10.6664" y="-84.1" font-family="Times,serif" font-size="16.00">foo: Foo</text>
<polygon fill="none" stroke="black" points="8,-51.5 8,-76.5 68,-76.5 68,-51.5 8,-51.5"/>
<text text-anchor="start" x="12.0128" y="-59.1" font-family="Times,serif" font-size="16.00">bar: Bar</text>
</g>
<!-- Foo -->
<g id="node2" class="node"><title>Foo</title>
<polygon fill="none" stroke="black" points="120,-53.5 120,-78.5 212,-78.5 212,-53.5 120,-53.5"/>
<text text-anchor="start" x="153.553" y="-62.1" font-family="Times,serif" font-weight="bold" font-size="16.00">Foo</text>
<polygon fill="none" stroke="black" points="120,-28.5 120,-53.5 212,-53.5 212,-28.5 120,-28.5"/>
<text text-anchor="start" x="140.013" y="-36.1" font-family="Times,serif" font-size="16.00">bar: Bar</text>
<polygon fill="none" stroke="black" points="120,-3.5 120,-28.5 212,-28.5 212,-3.5 120,-3.5"/>
<text text-anchor="start" x="122.659" y="-11.1" font-family="Times,serif" font-size="16.00">loopFoo: Foo</text>
</g>
<!-- Root&#45;&gt;Foo -->
<g id="edge1" class="edge"><title>Root:fooport&#45;&gt;Foo</title>
<path fill="none" stroke="black" d="M69,-88.5C80.3386,-88.5 91.7334,-85.8225 102.512,-81.7457"/>
<polygon fill="black" stroke="black" points="103.948,-84.9388 111.808,-77.835 101.233,-78.4865 103.948,-84.9388"/>
</g>
<!-- Bar -->
<g id="node3" class="node"><title>Bar</title>
<polygon fill="none" stroke="black" points="264,-54.5 264,-79.5 324,-79.5 324,-54.5 264,-54.5"/>
<text text-anchor="start" x="282.45" y="-63.1" font-family="Times,serif" font-weight="bold" font-size="16.00">Bar</text>
<polygon fill="none" stroke="black" points="264,-29.5 264,-54.5 324,-54.5 324,-29.5 264,-29.5"/>
<text text-anchor="start" x="266.666" y="-37.1" font-family="Times,serif" font-size="16.00">foo: Foo</text>
</g>
<!-- Root&#45;&gt;Bar -->
<g id="edge2" class="edge"><title>Root:barport&#45;&gt;Bar</title>
<path fill="none" stroke="black" d="M69,-63.5C92.0512,-63.5 89.9558,-85.7612 112,-92.5 157.903,-106.532 173.375,-103.909 220,-92.5 228.969,-90.3054 238.062,-86.7972 246.644,-82.7784"/>
<polygon fill="black" stroke="black" points="248.336,-85.8462 255.727,-78.2553 245.215,-79.5802 248.336,-85.8462"/>
</g>
<!-- Foo&#45;&gt;Foo -->
<g id="edge4" class="edge"><title>Foo:loopFooport&#45;&gt;Foo</title>
<path fill="none" stroke="black" d="M119.974,-10.049C84.342,-8.7572 48,-13.5469 48,-28.5 48,-40.8767 72.8974,-46.2905 101.682,-47.0562"/>
<polygon fill="black" stroke="black" points="101.964,-50.5584 111.991,-47.137 102.019,-43.5587 101.964,-50.5584"/>
</g>
<!-- Foo&#45;&gt;Bar -->
<g id="edge3" class="edge"><title>Foo:barport&#45;&gt;Bar</title>
<path fill="none" stroke="black" d="M213,-40.5C223.685,-40.5 235.054,-41.7268 245.767,-43.4541"/>
<polygon fill="black" stroke="black" points="245.333,-46.9319 255.792,-45.2398 246.561,-40.0403 245.333,-46.9319"/>
</g>
<!-- Bar&#45;&gt;Foo -->
<g id="edge5" class="edge"><title>Bar:fooport&#45;&gt;Foo</title>
<path fill="none" stroke="black" d="M263,-41.5C252.454,-41.5 241.256,-41.5 230.373,-41.5"/>
<polygon fill="black" stroke="black" points="230.066,-38.0001 220.066,-41.5 230.066,-45.0001 230.066,-38.0001"/>
</g>
</g>
</svg>
